{ "columns":4,
 "image":"Downloads\/minigolf-masks.gif",
 "imageheight":113,
 "imagewidth":65,
 "margin":1,
 "name":"minigolf_masks",
 "spacing":1,
 "tilecount":28,
 "tiledversion":"1.7.2",
 "tileheight":15,
 "tilewidth":15,
 "type":"tileset",
 "version":"1.6"
}